{
  "products": [
    {
      "id": 19,
      "title": "Eloquent JavaScript",
      "author": "Marijn Haverbeke",
      "description": "A modern introduction to programming, focusing on JavaScript, one of the most popular languages in web development.",
      "featured": true,
      "createdAt": "2023-08-10T10:07:41.876Z",
      "updatedAt": "2023-08-10T10:16:43.298Z",
      "publishedAt": "2023-08-10T10:07:44.157Z",
      "category": "Programming Languages",
      "image": "https://eloquentjavascript.net/img/cover.jpg",
      "price": 3499,
      "shipping": true,
      "tags": ["JavaScript", "Programming"]
    },
    {
      "id": 12,
      "title": "JavaScript: The Good Parts",
      "author": "Douglas Crockford",
      "description": "An insightful guide to JavaScript, focusing on the language's best features and how to avoid common pitfalls.",
      "featured": false,
      "createdAt": "2023-08-10T09:32:58.392Z",
      "updatedAt": "2023-08-10T09:33:03.728Z",
      "publishedAt": "2023-08-10T09:33:03.598Z",
      "category": "Programming Languages",
      "image": "https://images-na.ssl-images-amazon.com/images/I/81kqrwS1nNL.jpg",
      "price": 2599,
      "shipping": true,
      "tags": ["JavaScript", "Programming"]
    },
    {
      "id": 6,
      "title": "HTML & CSS: Design and Build Websites",
      "author": "Jon Duckett",
      "description": "A comprehensive guide to HTML and CSS, ideal for beginners looking to build and style websites.",
      "featured": true,
      "createdAt": "2023-08-02T14:32:02.775Z",
      "updatedAt": "2023-08-04T07:35:16.880Z",
      "publishedAt": "2023-08-02T14:32:05.491Z",
      "category": "Front-End Development",
      "image": "https://images-na.ssl-images-amazon.com/images/I/41lbrtWcgYL._SX396_BO1,204,203,200_.jpg",
      "price": 3199,
      "shipping": true,
      "tags": ["HTML", "CSS", "Front-End"]
    },
    {
      "id": 7,
      "title": "JavaScript and JQuery: Interactive Front-End Web Development",
      "author": "Jon Duckett",
      "description": "Learn how to create interactive front-end web applications using JavaScript and JQuery.",
      "featured": true,
      "createdAt": "2023-08-02T14:34:10.146Z",
      "updatedAt": "2023-08-08T14:06:28.575Z",
      "publishedAt": "2023-08-02T14:34:13.604Z",
      "category": "Front-End Development",
      "image": "https://images-na.ssl-images-amazon.com/images/I/518qQj4l+-L._SX396_BO1,204,203,200_.jpg",
      "price": 3999,
      "shipping": true,
      "tags": ["JavaScript", "JQuery", "Front-End"]
    },
    {
      "id": 13,
      "title": "You Don’t Know JS: Up & Going",
      "author": "Kyle Simpson",
      "description": "An introduction to JavaScript, providing foundational knowledge for developers new to the language.",
      "featured": false,
      "createdAt": "2023-08-10T09:34:24.429Z",
      "updatedAt": "2023-08-10T09:34:27.095Z",
      "publishedAt": "2023-08-10T09:34:26.981Z",
      "category": "Programming Languages",
      "image": "https://images-na.ssl-images-amazon.com/images/I/81kqrwS1nNL.jpg",
      "price": 1999,
      "shipping": true,
      "tags": ["JavaScript", "Programming"]
    },
    {
      "id": 20,
      "title": "Node.js Design Patterns",
      "author": "Mario Casciaro",
      "description": "This book provides a deep dive into the best practices and design patterns of Node.js for backend development.",
      "featured": false,
      "createdAt": "2023-08-10T10:08:58.922Z",
      "updatedAt": "2023-08-10T10:09:01.251Z",
      "publishedAt": "2023-08-10T10:09:01.135Z",
      "category": "Back-End Development",
      "image": "https://images-na.ssl-images-amazon.com/images/I/51cWbP3obNL._SX379_BO1,204,203,200_.jpg",
      "price": 4199,
      "shipping": true,
      "tags": ["Node.js", "Back-End"]
    },
    {
      "id": 16,
      "title": "Learning React",
      "author": "Alex Banks",
      "description": "A hands-on guide to building modern web applications using React, a popular front-end library.",
      "featured": false,
      "createdAt": "2023-08-10T10:02:51.583Z",
      "updatedAt": "2023-08-10T10:02:53.797Z",
      "publishedAt": "2023-08-10T10:02:53.674Z",
      "category": "Frameworks",
      "image": "https://images-na.ssl-images-amazon.com/images/I/51Qm9YPqwXL._SX379_BO1,204,203,200_.jpg",
      "price": 3499,
      "shipping": true,
      "tags": ["React", "Front-End"]
    },
    {
      "id": 21,
      "title": "Python Crash Course",
      "author": "Eric Matthes",
      "description": "A comprehensive introduction to Python, one of the most widely used programming languages in various domains.",
      "featured": false,
      "createdAt": "2023-08-10T10:10:46.803Z",
      "updatedAt": "2023-08-10T10:10:48.971Z",
      "publishedAt": "2023-08-10T10:10:48.858Z",
      "category": "Programming Languages",
      "image": "https://images-na.ssl-images-amazon.com/images/I/51fvD53aQ1L._SX384_BO1,204,203,200_.jpg",
      "price": 3799,
      "shipping": true,
      "tags": ["Python", "Programming"]
    },
    {
      "id": 22,
      "title": "Flask Web Development",
      "author": "Miguel Grinberg",
      "description": "This book provides an in-depth look at developing web applications using Flask, a lightweight Python web framework.",
      "featured": false,
      "createdAt": "2023-08-10T10:11:38.696Z",
      "updatedAt": "2023-08-10T10:11:40.915Z",
      "publishedAt": "2023-08-10T10:11:40.802Z",
      "category": "Back-End Development",
      "image": "https://images-na.ssl-images-amazon.com/images/I/51g76AZ6dSL._SX379_BO1,204,203,200_.jpg",
      "price": 2999,
      "shipping": true,
      "tags": ["Flask", "Python", "Back-End"]
    },
    {
      "id": 24,
      "title": "Mastering React",
      "author": "Adam Horton",
      "description": "A guide to mastering React for building complex and high-performance web applications.",
      "featured": false,
      "createdAt": "2023-08-10T10:13:29.629Z",
      "updatedAt": "2023-08-10T10:15:29.354Z",
      "publishedAt": "2023-08-10T10:13:31.792Z",
      "category": "Frameworks",
      "image": "https://images-na.ssl-images-amazon.com/images/I/51uXbB0RqaL._SX379_BO1,204,203,200_.jpg",
      "price": 4599,
      "shipping": true,
      "tags": ["React", "Front-End"]
    }
  ],
  "meta": {
    "pagination": {
      "page": 1,
      "pageSize": 10,
      "pageCount": 3,
      "total": 22
    },
    "categories": [
      "all",
      "Programming Languages",
      "Front-End Development",
      "Back-End Development",
      "Frameworks"
    ],
    "companies": [
      "all",
      "Marijn Haverbeke",
      "Douglas Crockford",
      "Jon Duckett",
      "Kyle Simpson",
      "Mario Casciaro",
      "Alex Banks",
      "Eric Matthes",
      "Miguel Grinberg",
      "Adam Horton"
    ]
  }
}
